Non-disclosive federated omic data analysis with DataSHIELD and Bioconductor
…
The differential expression analysis is then performed by:

ans.gender <- ds.limma(model =  ~ gdc_cases.demographic.gender, 
                       Set = "rse", type.data = "RNAseq", 
                       sva = FALSE)

Notice that we have set type.data='RNAseq' to consider that our data are counts obtained from a RNA-seq experiment. By indicating so, the differential analysis is performed by using voom + limma as previously mention.

The top differentially expressed genes can be visualized by:

ans.gender

$study1
# A tibble: 58,037 x 10
   id                  logFC   CI.L   CI.R AveExpr     t   P.Value adj.P.Val     B     SE
   <chr>               <dbl>  <dbl>  <dbl>   <dbl> <dbl>     <dbl>     <dbl> <dbl>  <dbl>
 1 ENSG00000233070.1   10.9   10.5   11.3   -5.59   53.6 7.05e-191 4.09e-186  402. 0.0761
 2 ENSG00000213318.4   11.4   10.9   11.8   -4.35   49.4 5.93e-178 1.72e-173  376. 0.462 
 3 ENSG00000067048.16   9.63   9.24  10.0    0.856  47.9 5.05e-173 9.78e-169  366. 0.0608
 4 ENSG00000260197.1   10.2    9.76  10.6   -5.88   46.3 5.27e-168 7.65e-164  355. 0.0654
 5 ENSG00000012817.15  11.3   10.8   11.8   -0.226  44.7 1.29e-162 1.50e-158  344. 0.0880
 6 ENSG00000131002.11  11.4   10.9   11.9   -1.10   44.5 7.80e-162 7.55e-158  343. 0.120 
 7 ENSG00000198692.9   12.3   11.8   12.9   -0.882  44.4 1.62e-161 1.34e-157  342. 0.129 
 8 ENSG00000183878.15   8.66   8.27   9.05  -0.781  43.9 9.83e-160 7.13e-156  338. 0.0813
 9 ENSG00000129824.15  11.4   10.8   11.9    2.37   43.3 1.44e-157 9.29e-154  334. 0.0896
10 ENSG00000274655.1  -12.4  -12.9  -11.8   -7.71  -43.1 5.20e-157 3.02e-153  333. 0.0931
# ... with 58,027 more rows
…
Then, the last step is to meta-analyze the results. Different methods can be used to this end. We have implemented a method that meta-analyze the p-pvalues of each study as follows:

ans.meta <- metaPvalues(ans.limma)
ans.meta

# A tibble: 481,868 x 4
   id                study1      study2   p.meta
   <chr>              <dbl>       <dbl>    <dbl>
 1 cg13138089 0.00000000190 0.00000763  4.78e-13
 2 cg25317941 0.0000000179  0.00000196  1.12e-12
 3 cg02812891 0.00000000731 0.00000707  1.63e-12
 4 cg12706938 0.00000000425 0.0000161   2.14e-12
 5 cg16026647 0.000000101   0.000000797 2.51e-12
 6 cg12695465 0.00000000985 0.0000144   4.33e-12
 7 cg21171625 0.000000146   0.00000225  9.78e-12
 8 cg13772815 0.00000000327 0.000122    1.18e-11
 9 cg00228891 0.000000166   0.00000283  1.38e-11
10 cg21488617 0.0000000186  0.0000299   1.62e-11
# ... with 481,858 more rows
…
Here In some cases inflation can be observed, so that, correction for cell-type or surrogate variables must be performed. We describe how we can do that in the next two sections.

3.5 Adjusting for Surrogate Variables

The vast majority of omic studies require to control for unwanted variability. The surrogate variable analysis (SVA) can address this issue by estimating some hidden covariates that capture differences across individuals due to some artifacts such as batch effects or sample quality sam among others. The method is implemented in SVA package.

Performing this type of analysis using the ds.lmFeature function is not allowed since estimating SVA would require to implement a non-disclosive method that computes SVA from the different servers. This will be a future topic of the dsOmicsClient. NOTE that, estimating SVA separately at each server would not be a good idea since the aim of SVA is to capture differences mainly due to experimental issues among ALL individuals. What we can do instead is to use the ds.limma function to perform the analyses adjusted for SVA at each study.

ans.sva <- ds.limma(model = ~ diagnosis + Sex, 
                    Set = "methy",
                    sva = TRUE, annotCols = c("CHR", "UCSC_RefGene_Name"))
ans.sva

$study1
# A tibble: 481,868 x 12
   id         CHR   UCSC_RefGene_Name        logFC    CI.L    CI.R AveExpr     t      P.Value adj.P.Val     B      SE
   <chr>      <chr> <chr>                    <dbl>   <dbl>   <dbl>   <dbl> <dbl>        <dbl>     <dbl> <dbl>   <dbl>
 1 cg10181414 19    "GNG7"                 -0.0547 -0.0721 -0.0373   0.338 -6.25 0.0000000131   0.00591  8.51 0.0103 
 2 cg13772815 17    ""                     -0.0569 -0.0757 -0.0381   0.437 -6.00 0.0000000391   0.00591  7.43 0.00425
 3 cg11802027 19    "PODNL1;PODNL1;PODNL1"  0.0334  0.0223  0.0445   0.568  5.97 0.0000000453   0.00591  7.29 0.00897
 4 cg27231068 17    "SLC47A2;SLC47A2"       0.0274  0.0182  0.0365   0.548  5.95 0.0000000491   0.00591  7.21 0.00696
 5 cg21078963 6     ""                     -0.0453 -0.0609 -0.0297   0.799 -5.78 0.000000105    0.00666  6.46 0.00733
 6 cg23859635 2     "MTA3"                 -0.0327 -0.0440 -0.0215   0.200 -5.77 0.000000109    0.00666  6.42 0.0149 
 7 cg10297473 16    "SALL1;SALL1"           0.0366  0.0240  0.0492   0.137  5.77 0.000000110    0.00666  6.42 0.00688
 8 cg24924572 1     ""                      0.0317  0.0208  0.0427   0.821  5.76 0.000000111    0.00666  6.41 0.00969
 9 cg13663116 9     ""                     -0.0326 -0.0440 -0.0213   0.367 -5.72 0.000000132    0.00705  6.24 0.00562
10 cg13138089 2     "ECEL1P2"              -0.106  -0.144  -0.0686   0.380 -5.61 0.000000215    0.00835  5.76 0.00137
# ... with 481,858 more rows

$study2
# A tibble: 481,868 x 12
   id         CHR   UCSC_RefGene_Name   logFC    CI.L    CI.R AveExpr     t       P.Value adj.P.Val     B      SE
   <chr>      <chr> <chr>               <dbl>   <dbl>   <dbl>   <dbl> <dbl>         <dbl>     <dbl> <dbl>   <dbl>
 1 cg16766632 12    "LRP1"            -0.0418 -0.0548 -0.0289   0.388 -6.42 0.00000000782   0.00374  9.05 0.00917
 2 cg25036710 1     ""                -0.0664 -0.0874 -0.0453   0.569 -6.27 0.0000000155    0.00374  8.37 0.00373
 3 cg12938128 11    "NRXN2;NRXN2"     -0.0273 -0.0367 -0.0179   0.728 -5.81 0.000000113     0.0149   6.42 0.00901
 4 cg07349815 3     ""                -0.0393 -0.0529 -0.0258   0.160 -5.78 0.000000124     0.0149   6.32 0.00737
 5 cg07664323 6     "MUC21"           -0.0427 -0.0579 -0.0276   0.776 -5.61 0.000000263     0.0163   5.59 0.00682
 6 cg00228891 1     "CR1L"            -0.0568 -0.0771 -0.0365   0.350 -5.56 0.000000318     0.0163   5.40 0.0139 
 7 cg11743675 12    "CNTN1;CNTN1"     -0.0443 -0.0601 -0.0284   0.152 -5.56 0.000000318     0.0163   5.40 0.00786
 8 cg03470754 7     "PGAM2;PGAM2"     -0.0442 -0.0600 -0.0283   0.211 -5.56 0.000000326     0.0163   5.38 0.00790
 9 cg07015749 1     "KCNAB2;KCNAB2"    0.0611  0.0392  0.0831   0.659  5.54 0.000000347     0.0163   5.31 0.00469
10 cg25647784 17    "WNK4"            -0.0392 -0.0533 -0.0251   0.512 -5.52 0.000000370     0.0163   5.25 0.00157
# ... with 481,858 more rows

attr(,"class")
[1] "dsLimma" "list"   

Then, data can be combined meta-anlyzed as follows:

ans.meta.sv <- metaPvalues(ans.sva)
ans.meta.sv

# A tibble: 481,868 x 4
   id               study1      study2   p.meta
   <chr>             <dbl>       <dbl>    <dbl>
 1 cg00228891 0.00000397   0.000000318 3.58e-11
 2 cg01301319 0.00000609   0.00000123  2.00e-10
 3 cg22962123 0.00000106   0.00000767  2.17e-10
 4 cg24302412 0.0000139    0.000000762 2.77e-10
 5 cg02812891 0.000000408  0.0000327   3.47e-10
 6 cg23859635 0.000000109  0.000190    5.29e-10
 7 cg13138089 0.000000215  0.000105    5.74e-10
 8 cg24938077 0.0000125    0.00000254  8.02e-10
 9 cg13772815 0.0000000391 0.00132     1.27e- 9
10 cg21212881 0.000000340  0.000248    2.04e- 9
# ... with 481,858 more rows
…
The HWE test can be performed to selected chromosomes using the argument chromosomes, only the autosomes can be selected when performing a HWE test, the encoding of the autosomes can be fetched with

ds.getChromosomeNames("gds.Data")$autosomes

NULL

Therefore, HWE can be performed by:

  ds.exactHWE("gds.Data", sexcol = "gender", male = "1", female = "2", chromosome = "22")

$study1
# A tibble: 1,581 x 9
   snpID chr   nAA   nAB   nBB   MAF                minor.allele f                   pval                
   <int> <chr> <chr> <chr> <chr> <chr>              <chr>        <chr>               <chr>               
 1 95140 22    531   1082  640   0.475810031069685  A            0.0372494534103404  0.0762378420092437  
 2 95141 22    580   1092  590   0.497789566755084  A            0.0344638881244839  0.101115839682148   
 3 95142 22    0     333   1951  0.0728984238178634 A            -0.0786304604486423 3.29321452000707e-06
 4 95143 22    0     225   2080  0.0488069414316703 A            -0.0513112884834663 0.00571353422173819 
 5 95144 22    176   831   1249  0.262189716312057  A            0.0479240933754878  0.025554465064758   
 6 95145 22    249   1003  1055  0.32531426094495   A            0.00958157673233362 0.635607524466151   
 7 95146 22    55    516   1738  0.135556517973149  A            0.0464603328061876  0.0325126363699498  
 8 95147 22    203   929   1164  0.290722996515679  A            0.0188880417746163  0.362631409282596   
 9 95148 22    291   1035  985   0.349848550411077  A            0.0154998317584483  0.464409674690009   
10 95149 22    11    276   2013  0.0647826086956522 A            0.00966929694008412 0.604847402951204   
# ... with 1,571 more rows

attr(,"class")
[1] "dsexactHWE" "list"      

Similarly, allele frequencies estimates can be estimated by:

  ds.alleleFrequency("gds.Data", sexcol = "gender", male = "1", female = "2")

$study1
# A tibble: 99,289 x 7
          M       F      all   n.M   n.F     n      MAF
      <dbl>   <dbl>    <dbl> <dbl> <dbl> <dbl>    <dbl>
 1 0.015    0.0147  0.0149    1200  1086  2286 0.0149  
 2 0.000837 0.00276 0.00175   1195  1087  2282 0.00175 
 3 0.00330  0.00548 0.00433   1212  1095  2307 0.00433 
 4 0.0124   0.00868 0.0106    1213  1095  2308 0.0106  
 5 0.00165  0       0.000866  1214  1095  2309 0.000866
 6 0.0712   0.0754  0.0732    1208  1094  2302 0.0732  
 7 0.00660  0.00913 0.00780   1213  1095  2308 0.00780 
 8 0.00248  0.00274 0.00261   1209  1093  2302 0.00261 
 9 0.182    0.181   0.181     1188  1071  2259 0.181   
10 0.00165  0       0.000868  1210  1094  2304 0.000868
# ... with 99,279 more rows
…
