Non-disclosive federated omic data analysis with DataSHIELD and Bioconductor
…
DESeq2

edgeR

We recommend to use the voom + limma pipeline proposed here given its versatility and that limma is much faster than DESeq2 and edgeR. By default, the function consider that data are obtained from a microarray experiment (type.data = "microarray"). Therefore, as we are analyzing RNAseq data, we much indicate that type.data = "RNAse"

ans.gender <- ds.limma(model =  ~ gdc_cases.demographic.gender, 
                       Set = "rse.pre", type.data = "RNAseq")

The top differentially expressed genes can be visualized by:

ans.gender

$study1
# A tibble: 40,363 x 7
   id             n   beta     SE     t   P.Value adj.P.Val
   <chr>      <int>  <dbl>  <dbl> <dbl>     <dbl>     <dbl>
 1 ENSG00000~   424 -12.4  0.0761 -52.1 2.74e-187 1.11e-182
 2 ENSG00000~   424 -10.2  0.461  -43.8 5.21e-160 1.05e-155
 3 ENSG00000~   424 -11.0  0.0603 -39.5 1.08e-144 1.45e-140
 4 ENSG00000~   424 -11.3  0.0651 -36.0 2.27e-131 2.29e-127
 5 ENSG00000~   424  10.9  0.0885  35.5 1.85e-129 1.49e-125
 6 ENSG00000~   424  10.2  0.118   32.9 3.72e-119 2.50e-115
 7 ENSG00000~   424  11.4  0.128   31.9 5.57e-115 3.21e-111
 8 ENSG00000~   424  -7.78 0.0812 -28.8 3.85e-102 1.94e- 98
 9 ENSG00000~   424   9.62 0.0894  27.4 4.72e- 96 2.12e- 92
10 ENSG00000~   424  11.4  0.0924  27.3 9.63e- 96 3.89e- 92
# ... with 40,353 more rows
…
attr(,"class")
[1] "dsfvarLabels" "list"        

So, we can run

ans.gender.sva <- ds.limma(model =  ~ gdc_cases.demographic.gender, 
                       Set = "rse.pre", type.data = "RNAseq",
                       sva = TRUE, annotCols = c("chromosome"))

The results are:

ans.gender.sva

$study1
# A tibble: 40,363 x 8
   id             n   beta     SE     t   P.Value adj.P.Val
   <chr>      <int>  <dbl>  <dbl> <dbl>     <dbl>     <dbl>
 1 ENSG00000~   424 -12.1  0.0713 -51.3 1.82e-178 7.33e-174
 2 ENSG00000~   424  -9.95 0.467  -44.9 1.52e-158 3.07e-154
 3 ENSG00000~   424 -10.7  0.0513 -40.3 2.19e-143 2.95e-139
 4 ENSG00000~   424 -10.7  0.0461 -37.4 6.78e-133 6.84e-129
 5 ENSG00000~   424  10.8  0.0571  36.4 2.43e-129 1.96e-125
 6 ENSG00000~   424  10.3  0.0774  34.3 1.98e-121 1.33e-117
 7 ENSG00000~   424   9.64 0.101   31.6 5.70e-111 2.87e-107
 8 ENSG00000~   424  11.2  0.0691  31.7 2.34e-111 1.35e-107
 9 ENSG00000~   424   4.48 0.0678  30.2 2.13e-105 8.61e-102
10 ENSG00000~   424  11.2  0.0547  30.9 2.17e-108 9.72e-105
# ... with 40,353 more rows, and 1 more variable:
#   chromosome <chr>
…
Then, the last step is to meta-analyze the results. Different methods can be used to this end. We have implemented a method that meta-analyze the p-pvalues of each study as follows:

ans.meta <- metaPvalues(ans.limma)
ans.meta

# A tibble: 481,868 x 4
   id                study1      study2   p.meta
   <chr>              <dbl>       <dbl>    <dbl>
 1 cg13138089 0.00000000190 0.00000763  4.78e-13
 2 cg25317941 0.0000000179  0.00000196  1.12e-12
 3 cg02812891 0.00000000731 0.00000707  1.63e-12
 4 cg12706938 0.00000000425 0.0000161   2.14e-12
 5 cg16026647 0.000000101   0.000000797 2.51e-12
 6 cg12695465 0.00000000985 0.0000144   4.33e-12
 7 cg21171625 0.000000146   0.00000225  9.78e-12
 8 cg13772815 0.00000000327 0.000122    1.18e-11
 9 cg00228891 0.000000166   0.00000283  1.38e-11
10 cg21488617 0.0000000186  0.0000299   1.62e-11
# ... with 481,858 more rows
…
Here In some cases inflation can be observed, so that, correction for cell-type or surrogate variables must be performed. We describe how we can do that in the next two sections.

3.5 Adjusting for Surrogate Variables

The vast majority of omic studies require to control for unwanted variability. The surrogate variable analysis (SVA) can address this issue by estimating some hidden covariates that capture differences across individuals due to some artifacts such as batch effects or sample quality sam among others. The method is implemented in SVA package.

Performing this type of analysis using the ds.lmFeature function is not allowed since estimating SVA would require to implement a non-disclosive method that computes SVA from the different servers. This will be a future topic of the dsOmicsClient. NOTE that, estimating SVA separately at each server would not be a good idea since the aim of SVA is to capture differences mainly due to experimental issues among ALL individuals. What we can do instead is to use the ds.limma function to perform the analyses adjusted for SVA at each study.

ans.sva <- ds.limma(model = ~ diagnosis + Sex, 
                    Set = "methy",
                    sva = TRUE, annotCols = c("CHR", "UCSC_RefGene_Name"))
ans.sva

$study1
# A tibble: 481,868 x 9
   id            n    beta      SE     t  P.Value adj.P.Val
   <chr>     <int>   <dbl>   <dbl> <dbl>    <dbl>     <dbl>
 1 cg035381~   100 -0.0300 0.0106  -6.99 3.64e-10  0.000102
 2 cg247245~   100 -0.0397 0.00452 -6.88 6.12e-10  0.000102
 3 cg021567~   100 -0.0497 0.00947 -6.87 6.35e-10  0.000102
 4 cg238596~   100 -0.0498 0.00715 -6.79 9.36e-10  0.000113
 5 cg137728~   100 -0.0767 0.00697 -6.62 2.01e- 9  0.000168
 6 cg052138~   100 -0.0803 0.0160  -6.62 2.10e- 9  0.000168
 7 cg194060~   100 -0.0409 0.00779 -6.52 3.29e- 9  0.000201
 8 cg261524~   100 -0.0840 0.00947 -6.52 3.33e- 9  0.000201
 9 cg009799~   100 -0.0723 0.00539 -6.44 4.81e- 9  0.000242
10 cg276606~   100 -0.0514 0.00128 -6.43 5.03e- 9  0.000242
# ... with 481,858 more rows, and 2 more variables:
#   CHR <chr>, UCSC_RefGene_Name <chr>

$study2
# A tibble: 481,868 x 9
   id           n    beta      SE     t   P.Value adj.P.Val
   <chr>    <int>   <dbl>   <dbl> <dbl>     <dbl>     <dbl>
 1 cg03470~    90 -0.0502 0.0104  -6.41   7.30e-9   0.00352
 2 cg02293~    90 -0.0394 0.00372 -6.02   4.04e-8   0.00663
 3 cg24302~    90 -0.0370 0.0111  -5.87   7.90e-8   0.00663
 4 cg07664~    90 -0.0416 0.00719 -5.85   8.43e-8   0.00663
 5 cg16766~    90 -0.0436 0.00671 -5.83   9.38e-8   0.00663
 6 cg04046~    90 -0.100  0.0142  -5.81   9.90e-8   0.00663
 7 cg00848~    90 -0.0414 0.00836 -5.79   1.07e-7   0.00663
 8 cg08862~    90 -0.0289 0.00900 -5.79   1.10e-7   0.00663
 9 cg10850~    90 -0.0700 0.00445 -5.74   1.35e-7   0.00672
10 cg27098~    90 -0.0664 0.00156 -5.72   1.49e-7   0.00672
# ... with 481,858 more rows, and 2 more variables:
#   CHR <chr>, UCSC_RefGene_Name <chr>

attr(,"class")
[1] "dsLimma" "list"   

Then, data can be combined meta-anlyzed as follows:

ans.meta.sv <- metaPvalues(ans.sva)
ans.meta.sv

# A tibble: 481,868 x 4
   id           study1       study2   p.meta
   <chr>         <dbl>        <dbl>    <dbl>
 1 cg24302412 1.94e- 8 0.0000000790 5.37e-14
 2 cg01301319 8.29e- 9 0.000000769  2.14e-13
 3 cg05213896 2.10e- 9 0.00000763   5.25e-13
 4 cg02812891 1.07e- 8 0.00000153   5.37e-13
 5 cg00228891 5.61e- 8 0.000000301  5.53e-13
 6 cg12695465 5.90e- 9 0.00000360   6.90e-13
 7 cg13138089 6.16e- 9 0.00000571   1.12e-12
 8 cg24724506 6.12e-10 0.0000829    1.60e-12
 9 cg19406036 3.29e- 9 0.0000331    3.37e-12
10 cg16026647 2.82e- 7 0.000000449  3.89e-12
# ... with 481,858 more rows
…
The HWE test can be performed to selected chromosomes using the argument chromosomes, only the autosomes can be selected when performing a HWE test, the encoding of the autosomes present on the object can be fetched with

ds.genoDimensions('gds.Data')$chromosomes

NULL

Therefore, HWE can be performed by:

ds.exactHWE("gds.Data", chromosome = "20")

$study1
# A tibble: 2,384 x 8
   rs     chr     nAA   nAB   nBB   MAF minor.allele   pval
   <chr>  <chr> <dbl> <dbl> <dbl> <dbl> <chr>         <dbl>
 1 rs613~ 20      123   815  1351 0.232 A            1     
 2 rs603~ 20      114   782  1410 0.219 A            0.670 
 3 rs603~ 20      286  1013  1009 0.343 A            0.197 
 4 rs608~ 20      384  1085   821 0.405 A            0.435 
 5 rs607~ 20      496  1131   679 0.460 A            0.557 
 6 rs169~ 20      358  1100   841 0.395 A            1.00  
 7 rs448~ 20      330  1087   888 0.379 A            0.965 
 8 rs608~ 20      309  1070   927 0.366 A            1     
 9 rs209~ 20       20   446  1840 0.105 A            0.268 
10 rs605~ 20      546  1088   656 0.476 A            0.0237
# ... with 2,374 more rows

attr(,"class")
[1] "dsexactHWE" "list"      

The same test can be conducted only for the control individuals (on this example taking the asthma covariates columnas as a cas/control) by:

ds.exactHWE("gds.Data", chromosome = "20", controls = TRUE, controls_column = "asthma")

$study1
# A tibble: 2,384 x 8
   rs      chr     nAA   nAB   nBB   MAF minor.allele  pval
   <chr>   <chr> <dbl> <dbl> <dbl> <dbl> <chr>        <dbl>
 1 rs6139~ 20       90   559   927 0.234 A            0.624
 2 rs6038~ 20       76   532   975 0.216 A            0.767
 3 rs6039~ 20      200   708   677 0.350 A            0.473
 4 rs6086~ 20      266   761   548 0.410 A            0.958
 5 rs6074~ 20      358   770   457 0.469 A            0.338
 6 rs1699~ 20      245   767   567 0.398 A            0.600
 7 rs4482~ 20      224   760   599 0.382 A            0.523
 8 rs6082~ 20      215   736   633 0.368 A            0.957
 9 rs2092~ 20       13   308  1260 0.106 A            0.285
10 rs6051~ 20      382   758   431 0.484 A            0.189
# ... with 2,374 more rows

attr(,"class")
[1] "dsexactHWE" "list"      

Similarly, allele frequencies estimates can be estimated by:

ds.alleleFrequency("gds.Data")

$study1
# A tibble: 99,289 x 8
   rs           M       F     all   n.M   n.F     n     MAF
   <chr>    <dbl>   <dbl>   <dbl> <dbl> <dbl> <dbl>   <dbl>
 1 MitoC~ 0.0147  1.5 e-2 1.49e-2  1086  1200  2286 1.49e-2
 2 MitoG~ 0.00276 8.37e-4 1.75e-3  1087  1195  2282 1.75e-3
 3 MitoG~ 0.00548 3.30e-3 4.33e-3  1095  1212  2307 4.33e-3
 4 MitoT~ 0.00868 1.24e-2 1.06e-2  1095  1213  2308 1.06e-2
 5 MitoC~ 0       1.65e-3 8.66e-4  1095  1214  2309 8.66e-4
 6 MitoT~ 0.0754  7.12e-2 7.32e-2  1094  1208  2302 7.32e-2
 7 MitoA~ 0.00913 6.60e-3 7.80e-3  1095  1213  2308 7.80e-3
 8 MitoG~ 0.00274 2.48e-3 2.61e-3  1093  1209  2302 2.61e-3
 9 MitoA~ 0.181   1.82e-1 1.81e-1  1071  1188  2259 1.81e-1
10 MitoT~ 0       1.65e-3 8.68e-4  1094  1210  2304 8.68e-4
# ... with 99,279 more rows
…
